bitserial_encoder/simulation/qsim/bit_serial_encoder.msim.vcd
$comment
	File created using the following command:
		vcd file bit_serial_encoder.msim.vcd -direction
$end
$date
	Sun Nov 13 13:23:15 2022
$end
$version
	ModelSim Version 2020.1
$end
$timescale
	1ps
$end

$scope module bit_serial_encoder_vhd_vec_tst $end
$var wire 1 ! clk $end
$var wire 1 " mIn $end
$var wire 1 # nGRst $end
$var wire 1 $ x [7] $end
$var wire 1 % x [6] $end
$var wire 1 & x [5] $end
$var wire 1 ' x [4] $end
$var wire 1 ( x [3] $end
$var wire 1 ) x [2] $end
$var wire 1 * x [1] $end
$var wire 1 + x [0] $end

$scope module i1 $end
$var wire 1 , gnd $end
$var wire 1 - vcc $end
$var wire 1 . unknown $end
$var wire 1 / devoe $end
$var wire 1 0 devclrn $end
$var wire 1 1 devpor $end
$var wire 1 2 ww_devoe $end
$var wire 1 3 ww_devclrn $end
$var wire 1 4 ww_devpor $end
$var wire 1 5 ww_nGRst $end
$var wire 1 6 ww_clk $end
$var wire 1 7 ww_mIn $end
$var wire 1 8 ww_x [7] $end
$var wire 1 9 ww_x [6] $end
$var wire 1 : ww_x [5] $end
$var wire 1 ; ww_x [4] $end
$var wire 1 < ww_x [3] $end
$var wire 1 = ww_x [2] $end
$var wire 1 > ww_x [1] $end
$var wire 1 ? ww_x [0] $end
$var wire 1 @ \mIn~input_o\ $end
$var wire 1 A \~QUARTUS_CREATED_GND~I_combout\ $end
$var wire 1 B \clk~input_o\ $end
$var wire 1 C \clk~inputCLKENA0_outclk\ $end
$var wire 1 D \bincount|ff0|Q~0_combout\ $end
$var wire 1 E \nGRst~input_o\ $end
$var wire 1 F \bincount|ff2|Q~0_combout\ $end
$var wire 1 G \bincount|ff2|Q~q\ $end
$var wire 1 H \control_unit|nad2|y~0_combout\ $end
$var wire 1 I \bincount|ff0|Q~q\ $end
$var wire 1 J \bincount|ff1|Q~0_combout\ $end
$var wire 1 K \bincount|ff1|Q~q\ $end
$var wire 1 L \control_unit|nord|y~0_combout\ $end
$var wire 1 M \reg_par|ff0|Q~feeder_combout\ $end
$var wire 1 N \control_unit|nad4|y~0_combout\ $end
$var wire 1 O \reg_par|ff0|Q~q\ $end
$var wire 1 P \reg_par|ff1|Q~feeder_combout\ $end
$var wire 1 Q \reg_par|ff1|Q~q\ $end
$var wire 1 R \reg_par|ff2|Q~feeder_combout\ $end
$var wire 1 S \reg_par|ff2|Q~q\ $end
$var wire 1 T \reg_par|ff3|Q~feeder_combout\ $end
$var wire 1 U \reg_par|ff3|Q~q\ $end
$var wire 1 V \reg_par|ff4|Q~feeder_combout\ $end
$var wire 1 W \reg_par|ff4|Q~q\ $end
$var wire 1 X \reg_par|ff5|Q~feeder_combout\ $end
$var wire 1 Y \reg_par|ff5|Q~q\ $end
$var wire 1 Z \reg_par|ff6|Q~feeder_combout\ $end
$var wire 1 [ \reg_par|ff6|Q~q\ $end
$var wire 1 \ \reg_par|ff7|Q~feeder_combout\ $end
$var wire 1 ] \reg_par|ff7|Q~q\ $end
$var wire 1 ^ \reg_par|ff0|ALT_INV_Q~q\ $end
$var wire 1 _ \reg_par|ff1|ALT_INV_Q~q\ $end
$var wire 1 ` \reg_par|ff2|ALT_INV_Q~q\ $end
$var wire 1 a \reg_par|ff3|ALT_INV_Q~q\ $end
$var wire 1 b \reg_par|ff4|ALT_INV_Q~q\ $end
$var wire 1 c \reg_par|ff5|ALT_INV_Q~q\ $end
$var wire 1 d \reg_par|ff6|ALT_INV_Q~q\ $end
$var wire 1 e \reg_par|ff7|ALT_INV_Q~q\ $end
$var wire 1 f \bincount|ff2|ALT_INV_Q~q\ $end
$var wire 1 g \bincount|ff1|ALT_INV_Q~q\ $end
$var wire 1 h \bincount|ff0|ALT_INV_Q~q\ $end
$var wire 1 i \control_unit|nad4|ALT_INV_y~0_combout\ $end
$var wire 1 j \control_unit|nad2|ALT_INV_y~0_combout\ $end
$var wire 1 k \ALT_INV_clk~input_o\ $end
$var wire 1 l \ALT_INV_nGRst~input_o\ $end
$upscope $end
$upscope $end
$enddefinitions $end
#0
$dumpvars
1!
0"
1#
0,
1-
x.
1/
10
11
12
13
14
15
16
07
0@
xA
1B
1C
1D
1E
0F
0G
0H
0I
0J
0K
0L
1M
1N
0O
1P
0Q
1R
0S
1T
0U
1V
0W
1X
0Y
1Z
0[
1\
0]
1^
1_
1`
1a
1b
1c
1d
1e
1f
1g
1h
0i
1j
0k
0l
18
19
1:
1;
1<
1=
1>
1?
1$
1%
1&
1'
1(
1)
1*
1+
$end
#5000
0!
06
0B
0C
1k
0N
1i
#10000
1!
16
1B
1C
0k
1N
1I
0h
0i
0D
1J
0N
1i
#15000
0!
06
0B
0C
1k
#20000
1!
16
1B
1C
0k
0I
1K
0g
1h
1D
#25000
0!
06
0B
0C
1k
#30000
1!
16
1B
1C
0k
1I
0h
0D
1F
0J
#35000
0!
06
0B
0C
1k
#40000
1!
16
1B
1C
0k
1G
0I
0K
1g
1h
0f
1D
#45000
0!
06
0B
0C
1k
1L
1O
1Q
1S
1U
1W
1Y
1[
1]
0e
0d
0c
0b
0a
0`
0_
0^
0?
0>
0=
0<
0;
0:
09
08
0+
0*
0)
0(
0'
0&
0%
0$
#50000
1!
16
1B
1C
0k
0L
1I
0h
0D
1J
#55000
0!
06
0B
0C
1k
1L
#60000
1!
1"
16
17
1@
1B
1C
0k
0L
0I
1K
0g
1h
1D
1H
1N
0i
0j
0G
0K
0O
0Q
0S
0U
0W
0Y
0[
0]
1e
1d
1c
1b
1a
1`
1_
1^
1g
1f
0F
0H
0J
1j
1?
1>
1=
1<
1;
1:
19
18
1+
1*
1)
1(
1'
1&
1%
1$
#65000
0!
06
0B
0C
1k
0N
1i
#70000
1!
0"
16
07
0@
1B
1C
0k
1N
1I
0h
0i
0D
1J
0N
1i
#75000
0!
06
0B
0C
1k
#80000
1!
16
1B
1C
0k
0I
1K
0g
1h
1D
#85000
0!
06
0B
0C
1k
#90000
1!
16
1B
1C
0k
1I
0h
0D
1F
0J
#95000
0!
06
0B
0C
1k
#100000
1!
16
1B
1C
0k
1G
0I
0K
1g
1h
0f
1D
#105000
0!
06
0B
0C
1k
1L
1O
1Q
1S
1U
1W
1Y
1[
1]
0e
0d
0c
0b
0a
0`
0_
0^
0?
0>
0=
0<
0;
0:
09
08
0+
0*
0)
0(
0'
0&
0%
0$
#110000
1!
16
1B
1C
0k
0L
1I
0h
0D
1J
#115000
0!
06
0B
0C
1k
1L
#120000
1!
16
1B
1C
0k
0L
0I
1K
0g
1h
1D
1H
1N
0i
0j
0G
0K
0O
0Q
0S
0U
0W
0Y
0[
0]
1e
1d
1c
1b
1a
1`
1_
1^
1g
1f
0F
0H
0J
1j
1?
1>
1=
1<
1;
1:
19
18
1+
1*
1)
1(
1'
1&
1%
1$
#125000
0!
06
0B
0C
1k
0N
1i
#130000
1!
1"
16
17
1@
1B
1C
0k
1N
1I
0h
0i
0D
1J
0N
1i
#135000
0!
06
0B
0C
1k
#140000
1!
0"
16
07
0@
1B
1C
0k
0I
1K
0g
1h
1D
#145000
0!
06
0B
0C
1k
#150000
1!
16
1B
1C
0k
1I
0h
0D
1F
0J
#155000
0!
06
0B
0C
1k
#160000
1!
16
1B
1C
0k
1G
0I
0K
1g
1h
0f
1D
#165000
0!
06
0B
0C
1k
1L
1O
1Q
1S
1U
1W
1Y
1[
1]
0e
0d
0c
0b
0a
0`
0_
0^
0?
0>
0=
0<
0;
0:
09
08
0+
0*
0)
0(
0'
0&
0%
0$
#170000
1!
16
1B
1C
0k
0L
1I
0h
0D
1J
#175000
0!
06
0B
0C
1k
1L
#180000
1!
16
1B
1C
0k
0L
0I
1K
0g
1h
1D
1H
1N
0i
0j
0G
0K
0O
0Q
0S
0U
0W
0Y
0[
0]
1e
1d
1c
1b
1a
1`
1_
1^
1g
1f
0F
0H
0J
1j
1?
1>
1=
1<
1;
1:
19
18
1+
1*
1)
1(
1'
1&
1%
1$
#185000
0!
06
0B
0C
1k
0N
1i
#190000
1!
16
1B
1C
0k
1N
1I
0h
0i
0D
1J
0N
1i
#195000
0!
06
0B
0C
1k
#200000
1!
1"
16
17
1@
1B
1C
0k
0I
1K
0g
1h
1D
#205000
0!
06
0B
0C
1k
#210000
1!
0"
16
07
0@
1B
1C
0k
1I
0h
0D
1F
0J
#215000
0!
06
0B
0C
1k
#220000
1!
16
1B
1C
0k
1G
0I
0K
1g
1h
0f
1D
#225000
0!
06
0B
0C
1k
1L
1O
1Q
1S
1U
1W
1Y
1[
1]
0e
0d
0c
0b
0a
0`
0_
0^
0?
0>
0=
0<
0;
0:
09
08
0+
0*
0)
0(
0'
0&
0%
0$
#230000
1!
16
1B
1C
0k
0L
1I
0h
0D
1J
#235000
0!
06
0B
0C
1k
1L
#240000
1!
16
1B
1C
0k
0L
0I
1K
0g
1h
1D
1H
1N
0i
0j
0G
0K
0O
0Q
0S
0U
0W
0Y
0[
0]
1e
1d
1c
1b
1a
1`
1_
1^
1g
1f
0F
0H
0J
1j
1?
1>
1=
1<
1;
1:
19
18
1+
1*
1)
1(
1'
1&
1%
1$
#245000
0!
06
0B
0C
1k
0N
1i
#250000
1!
16
1B
1C
0k
1N
1I
0h
0i
0D
1J
0N
1i
#255000
0!
06
0B
0C
1k
#260000
1!
16
1B
1C
0k
0I
1K
0g
1h
1D
#265000
0!
06
0B
0C
1k
#270000
1!
1"
16
17
1@
1B
1C
0k
1I
0h
0D
1F
0J
#275000
0!
06
0B
0C
1k
#280000
1!
0"
16
07
0@
1B
1C
0k
1G
0I
0K
1g
1h
0f
1D
#285000
0!
06
0B
0C
1k
1L
1O
1Q
1S
1U
1W
1Y
1[
1]
0e
0d
0c
0b
0a
0`
0_
0^
0?
0>
0=
0<
0;
0:
09
08
0+
0*
0)
0(
0'
0&
0%
0$
#290000
1!
16
1B
1C
0k
0L
1I
0h
0D
1J
#295000
0!
06
0B
0C
1k
1L
#300000
1!
16
1B
1C
0k
0L
0I
1K
0g
1h
1D
1H
1N
0i
0j
0G
0K
0O
0Q
0S
0U
0W
0Y
0[
0]
1e
1d
1c
1b
1a
1`
1_
1^
1g
1f
0F
0H
0J
1j
1?
1>
1=
1<
1;
1:
19
18
1+
1*
1)
1(
1'
1&
1%
1$
#305000
0!
06
0B
0C
1k
0N
1i
#310000
1!
16
1B
1C
0k
1N
1I
0h
0i
0D
1J
0N
1i
#315000
0!
06
0B
0C
1k
#320000
1!
16
1B
1C
0k
0I
1K
0g
1h
1D
#325000
0!
06
0B
0C
1k
#330000
1!
16
1B
1C
0k
1I
0h
0D
1F
0J
#335000
0!
06
0B
0C
1k
#340000
1!
16
1B
1C
0k
1G
0I
0K
1g
1h
0f
1D
#345000
0!
06
0B
0C
1k
1L
1O
1Q
1S
1U
1W
1Y
1[
1]
0e
0d
0c
0b
0a
0`
0_
0^
0?
0>
0=
0<
0;
0:
09
08
0+
0*
0)
0(
0'
0&
0%
0$
#350000
1!
16
1B
1C
0k
0L
1I
0h
0D
1J
#355000
0!
06
0B
0C
1k
1L
#360000
1!
16
1B
1C
0k
0L
0I
1K
0g
1h
1D
1H
1N
0i
0j
0G
0K
0O
0Q
0S
0U
0W
0Y
0[
0]
1e
1d
1c
1b
1a
1`
1_
1^
1g
1f
0F
0H
0J
1j
1?
1>
1=
1<
1;
1:
19
18
1+
1*
1)
1(
1'
1&
1%
1$
#365000
0!
06
0B
0C
1k
0N
1i
#370000
1!
16
1B
1C
0k
1N
1I
0h
0i
0D
1J
0N
1i
#375000
0!
06
0B
0C
1k
#380000
1!
16
1B
1C
0k
0I
1K
0g
1h
1D
#385000
0!
06
0B
0C
1k
#390000
1!
16
1B
1C
0k
1I
0h
0D
1F
0J
#395000
0!
06
0B
0C
1k
#400000
1!
16
1B
1C
0k
1G
0I
0K
1g
1h
0f
1D
#405000
0!
06
0B
0C
1k
1L
1O
1Q
1S
1U
1W
1Y
1[
1]
0e
0d
0c
0b
0a
0`
0_
0^
0?
0>
0=
0<
0;
0:
09
08
0+
0*
0)
0(
0'
0&
0%
0$
#410000
1!
16
1B
1C
0k
0L
1I
0h
0D
1J
#415000
0!
06
0B
0C
1k
1L
#420000
1!
16
1B
1C
0k
0L
0I
1K
0g
1h
1D
1H
1N
0i
0j
0G
0K
0O
0Q
0S
0U
0W
0Y
0[
0]
1e
1d
1c
1b
1a
1`
1_
1^
1g
1f
0F
0H
0J
1j
1?
1>
1=
1<
1;
1:
19
18
1+
1*
1)
1(
1'
1&
1%
1$
#425000
0!
06
0B
0C
1k
0N
1i
#430000
1!
16
1B
1C
0k
1N
1I
0h
0i
0D
1J
0N
1i
#435000
0!
06
0B
0C
1k
#440000
1!
16
1B
1C
0k
0I
1K
0g
1h
1D
#445000
0!
06
0B
0C
1k
#450000
1!
16
1B
1C
0k
1I
0h
0D
1F
0J
#455000
0!
06
0B
0C
1k
#460000
1!
16
1B
1C
0k
1G
0I
0K
1g
1h
0f
1D
#465000
0!
06
0B
0C
1k
1L
1O
1Q
1S
1U
1W
1Y
1[
1]
0e
0d
0c
0b
0a
0`
0_
0^
0?
0>
0=
0<
0;
0:
09
08
0+
0*
0)
0(
0'
0&
0%
0$
#470000
1!
16
1B
1C
0k
0L
1I
0h
0D
1J
#475000
0!
06
0B
0C
1k
1L
#480000
1!
16
1B
1C
0k
0L
0I
1K
0g
1h
1D
1H
1N
0i
0j
0G
0K
0O
0Q
0S
0U
0W
0Y
0[
0]
1e
1d
1c
1b
1a
1`
1_
1^
1g
1f
0F
0H
0J
1j
1?
1>
1=
1<
1;
1:
19
18
1+
1*
1)
1(
1'
1&
1%
1$
#485000
0!
06
0B
0C
1k
0N
1i
#490000
1!
16
1B
1C
0k
1N
1I
0h
0i
0D
1J
0N
1i
#495000
0!
06
0B
0C
1k
#500000
1!
16
1B
1C
0k
0I
1K
0g
1h
1D
#505000
0!
06
0B
0C
1k
#510000
1!
16
1B
1C
0k
1I
0h
0D
1F
0J
#515000
0!
06
0B
0C
1k
#520000
1!
16
1B
1C
0k
1G
0I
0K
1g
1h
0f
1D
#525000
0!
06
0B
0C
1k
1L
1O
1Q
1S
1U
1W
1Y
1[
1]
0e
0d
0c
0b
0a
0`
0_
0^
0?
0>
0=
0<
0;
0:
09
08
0+
0*
0)
0(
0'
0&
0%
0$
#530000
1!
16
1B
1C
0k
0L
1I
0h
0D
1J
#535000
0!
06
0B
0C
1k
1L
#540000
1!
16
1B
1C
0k
0L
0I
1K
0g
1h
1D
1H
1N
0i
0j
0G
0K
0O
0Q
0S
0U
0W
0Y
0[
0]
1e
1d
1c
1b
1a
1`
1_
1^
1g
1f
0F
0H
0J
1j
1?
1>
1=
1<
1;
1:
19
18
1+
1*
1)
1(
1'
1&
1%
1$
#545000
0!
06
0B
0C
1k
0N
1i
#550000
1!
16
1B
1C
0k
1N
1I
0h
0i
0D
1J
0N
1i
#555000
0!
06
0B
0C
1k
#560000
1!
16
1B
1C
0k
0I
1K
0g
1h
1D
#565000
0!
06
0B
0C
1k
#570000
1!
16
1B
1C
0k
1I
0h
0D
1F
0J
#575000
0!
06
0B
0C
1k
#580000
1!
16
1B
1C
0k
1G
0I
0K
1g
1h
0f
1D
#585000
0!
06
0B
0C
1k
1L
1O
1Q
1S
1U
1W
1Y
1[
1]
0e
0d
0c
0b
0a
0`
0_
0^
0?
0>
0=
0<
0;
0:
09
08
0+
0*
0)
0(
0'
0&
0%
0$
#590000
1!
16
1B
1C
0k
0L
1I
0h
0D
1J
#595000
0!
06
0B
0C
1k
1L
#600000
1!
16
1B
1C
0k
0L
0I
1K
0g
1h
1D
1H
1N
0i
0j
0G
0K
0O
0Q
0S
0U
0W
0Y
0[
0]
1e
1d
1c
1b
1a
1`
1_
1^
1g
1f
0F
0H
0J
1j
1?
1>
1=
1<
1;
1:
19
18
1+
1*
1)
1(
1'
1&
1%
1$
#605000
0!
06
0B
0C
1k
0N
1i
#610000
1!
16
1B
1C
0k
1N
1I
0h
0i
0D
1J
0N
1i
#615000
0!
06
0B
0C
1k
#620000
1!
16
1B
1C
0k
0I
1K
0g
1h
1D
#625000
0!
06
0B
0C
1k
#630000
1!
16
1B
1C
0k
1I
0h
0D
1F
0J
#635000
0!
06
0B
0C
1k
#640000
1!
16
1B
1C
0k
1G
0I
0K
1g
1h
0f
1D
#645000
0!
06
0B
0C
1k
1L
1O
1Q
1S
1U
1W
1Y
1[
1]
0e
0d
0c
0b
0a
0`
0_
0^
0?
0>
0=
0<
0;
0:
09
08
0+
0*
0)
0(
0'
0&
0%
0$
#650000
1!
16
1B
1C
0k
0L
1I
0h
0D
1J
#655000
0!
06
0B
0C
1k
1L
#660000
1!
16
1B
1C
0k
0L
0I
1K
0g
1h
1D
1H
1N
0i
0j
0G
0K
0O
0Q
0S
0U
0W
0Y
0[
0]
1e
1d
1c
1b
1a
1`
1_
1^
1g
1f
0F
0H
0J
1j
1?
1>
1=
1<
1;
1:
19
18
1+
1*
1)
1(
1'
1&
1%
1$
#665000
0!
06
0B
0C
1k
0N
1i
#670000
1!
16
1B
1C
0k
1N
1I
0h
0i
0D
1J
0N
1i
#675000
0!
06
0B
0C
1k
#680000
1!
16
1B
1C
0k
0I
1K
0g
1h
1D
#685000
0!
06
0B
0C
1k
#690000
1!
16
1B
1C
0k
1I
0h
0D
1F
0J
#695000
0!
06
0B
0C
1k
#700000
1!
16
1B
1C
0k
1G
0I
0K
1g
1h
0f
1D
#705000
0!
06
0B
0C
1k
1L
1O
1Q
1S
1U
1W
1Y
1[
1]
0e
0d
0c
0b
0a
0`
0_
0^
0?
0>
0=
0<
0;
0:
09
08
0+
0*
0)
0(
0'
0&
0%
0$
#710000
1!
16
1B
1C
0k
0L
1I
0h
0D
1J
#715000
0!
06
0B
0C
1k
1L
#720000
1!
16
1B
1C
0k
0L
0I
1K
0g
1h
1D
1H
1N
0i
0j
0G
0K
0O
0Q
0S
0U
0W
0Y
0[
0]
1e
1d
1c
1b
1a
1`
1_
1^
1g
1f
0F
0H
0J
1j
1?
1>
1=
1<
1;
1:
19
18
1+
1*
1)
1(
1'
1&
1%
1$
#725000
0!
06
0B
0C
1k
0N
1i
#730000
1!
16
1B
1C
0k
1N
1I
0h
0i
0D
1J
0N
1i
#735000
0!
06
0B
0C
1k
#740000
1!
16
1B
1C
0k
0I
1K
0g
1h
1D
#745000
0!
06
0B
0C
1k
#750000
1!
16
1B
1C
0k
1I
0h
0D
1F
0J
#755000
0!
06
0B
0C
1k
#760000
1!
16
1B
1C
0k
1G
0I
0K
1g
1h
0f
1D
#765000
0!
06
0B
0C
1k
1L
1O
1Q
1S
1U
1W
1Y
1[
1]
0e
0d
0c
0b
0a
0`
0_
0^
0?
0>
0=
0<
0;
0:
09
08
0+
0*
0)
0(
0'
0&
0%
0$
#770000
1!
16
1B
1C
0k
0L
1I
0h
0D
1J
#775000
0!
06
0B
0C
1k
1L
#780000
1!
16
1B
1C
0k
0L
0I
1K
0g
1h
1D
1H
1N
0i
0j
0G
0K
0O
0Q
0S
0U
0W
0Y
0[
0]
1e
1d
1c
1b
1a
1`
1_
1^
1g
1f
0F
0H
0J
1j
1?
1>
1=
1<
1;
1:
19
18
1+
1*
1)
1(
1'
1&
1%
1$
#785000
0!
06
0B
0C
1k
0N
1i
#790000
1!
16
1B
1C
0k
1N
1I
0h
0i
0D
1J
0N
1i
#795000
0!
06
0B
0C
1k
#800000
1!
16
1B
1C
0k
0I
1K
0g
1h
1D
#805000
0!
06
0B
0C
1k
#810000
1!
16
1B
1C
0k
1I
0h
0D
1F
0J
#815000
0!
06
0B
0C
1k
#820000
1!
16
1B
1C
0k
1G
0I
0K
1g
1h
0f
1D
#825000
0!
06
0B
0C
1k
1L
1O
1Q
1S
1U
1W
1Y
1[
1]
0e
0d
0c
0b
0a
0`
0_
0^
0?
0>
0=
0<
0;
0:
09
08
0+
0*
0)
0(
0'
0&
0%
0$
#830000
1!
16
1B
1C
0k
0L
1I
0h
0D
1J
#835000
0!
06
0B
0C
1k
1L
#840000
1!
16
1B
1C
0k
0L
0I
1K
0g
1h
1D
1H
1N
0i
0j
0G
0K
0O
0Q
0S
0U
0W
0Y
0[
0]
1e
1d
1c
1b
1a
1`
1_
1^
1g
1f
0F
0H
0J
1j
1?
1>
1=
1<
1;
1:
19
18
1+
1*
1)
1(
1'
1&
1%
1$
#845000
0!
06
0B
0C
1k
0N
1i
#850000
1!
16
1B
1C
0k
1N
1I
0h
0i
0D
1J
0N
1i
#855000
0!
06
0B
0C
1k
#860000
1!
16
1B
1C
0k
0I
1K
0g
1h
1D
#865000
0!
06
0B
0C
1k
#870000
1!
16
1B
1C
0k
1I
0h
0D
1F
0J
#875000
0!
06
0B
0C
1k
#880000
1!
16
1B
1C
0k
1G
0I
0K
1g
1h
0f
1D
#885000
0!
06
0B
0C
1k
1L
1O
1Q
1S
1U
1W
1Y
1[
1]
0e
0d
0c
0b
0a
0`
0_
0^
0?
0>
0=
0<
0;
0:
09
08
0+
0*
0)
0(
0'
0&
0%
0$
#890000
1!
16
1B
1C
0k
0L
1I
0h
0D
1J
#895000
0!
06
0B
0C
1k
1L
#900000
1!
16
1B
1C
0k
0L
0I
1K
0g
1h
1D
1H
1N
0i
0j
0G
0K
0O
0Q
0S
0U
0W
0Y
0[
0]
1e
1d
1c
1b
1a
1`
1_
1^
1g
1f
0F
0H
0J
1j
1?
1>
1=
1<
1;
1:
19
18
1+
1*
1)
1(
1'
1&
1%
1$
#905000
0!
06
0B
0C
1k
0N
1i
#910000
1!
16
1B
1C
0k
1N
1I
0h
0i
0D
1J
0N
1i
#915000
0!
06
0B
0C
1k
#920000
1!
16
1B
1C
0k
0I
1K
0g
1h
1D
#925000
0!
06
0B
0C
1k
#930000
1!
16
1B
1C
0k
1I
0h
0D
1F
0J
#935000
0!
06
0B
0C
1k
#940000
1!
16
1B
1C
0k
1G
0I
0K
1g
1h
0f
1D
#945000
0!
06
0B
0C
1k
1L
1O
1Q
1S
1U
1W
1Y
1[
1]
0e
0d
0c
0b
0a
0`
0_
0^
0?
0>
0=
0<
0;
0:
09
08
0+
0*
0)
0(
0'
0&
0%
0$
#950000
1!
16
1B
1C
0k
0L
1I
0h
0D
1J
#955000
0!
06
0B
0C
1k
1L
#960000
1!
16
1B
1C
0k
0L
0I
1K
0g
1h
1D
1H
1N
0i
0j
0G
0K
0O
0Q
0S
0U
0W
0Y
0[
0]
1e
1d
1c
1b
1a
1`
1_
1^
1g
1f
0F
0H
0J
1j
1?
1>
1=
1<
1;
1:
19
18
1+
1*
1)
1(
1'
1&
1%
1$
#965000
0!
06
0B
0C
1k
0N
1i
#970000
1!
16
1B
1C
0k
1N
1I
0h
0i
0D
1J
0N
1i
#975000
0!
06
0B
0C
1k
#980000
1!
16
1B
1C
0k
0I
1K
0g
1h
1D
#985000
0!
06
0B
0C
1k
#990000
1!
16
1B
1C
0k
1I
0h
0D
1F
0J
#995000
0!
06
0B
0C
1k
