bitserial_encoder/simulation/qsim/bit_serial_encoder.msim.vcd
$comment
	File created using the following command:
		vcd file bit_serial_encoder.msim.vcd -direction
$end
$date
	Sat Nov 12 22:24:24 2022
$end
$version
	ModelSim Version 2020.1
$end
$timescale
	1ps
$end

$scope module bit_serial_encoder_vhd_vec_tst $end
$var wire 1 ! clk $end
$var wire 1 " mIn $end
$var wire 1 # nGRst $end
$var wire 1 $ x [7] $end
$var wire 1 % x [6] $end
$var wire 1 & x [5] $end
$var wire 1 ' x [4] $end
$var wire 1 ( x [3] $end
$var wire 1 ) x [2] $end
$var wire 1 * x [1] $end
$var wire 1 + x [0] $end

$scope module i1 $end
$var wire 1 , gnd $end
$var wire 1 - vcc $end
$var wire 1 . unknown $end
$var wire 1 / devoe $end
$var wire 1 0 devclrn $end
$var wire 1 1 devpor $end
$var wire 1 2 ww_devoe $end
$var wire 1 3 ww_devclrn $end
$var wire 1 4 ww_devpor $end
$var wire 1 5 ww_nGRst $end
$var wire 1 6 ww_clk $end
$var wire 1 7 ww_mIn $end
$var wire 1 8 ww_x [7] $end
$var wire 1 9 ww_x [6] $end
$var wire 1 : ww_x [5] $end
$var wire 1 ; ww_x [4] $end
$var wire 1 < ww_x [3] $end
$var wire 1 = ww_x [2] $end
$var wire 1 > ww_x [1] $end
$var wire 1 ? ww_x [0] $end
$var wire 1 @ \nGRst~input_o\ $end
$var wire 1 A \mIn~input_o\ $end
$var wire 1 B \clk~input_o\ $end
$var wire 1 C \~QUARTUS_CREATED_GND~I_combout\ $end
$upscope $end
$upscope $end
$enddefinitions $end
#0
$dumpvars
1!
0"
0#
0,
1-
x.
1/
10
11
12
13
14
05
16
07
0@
0A
1B
xC
18
19
1:
1;
1<
1=
1>
1?
1$
1%
1&
1'
1(
1)
1*
1+
$end
#5000
0!
06
0B
#10000
1!
16
1B
#15000
0!
06
0B
#20000
1!
16
1B
#25000
0!
06
0B
#30000
1!
16
1B
#35000
0!
06
0B
#40000
1!
16
1B
#45000
0!
06
0B
#50000
1!
16
1B
#55000
0!
06
0B
#60000
1!
1"
16
17
1A
1B
#65000
0!
06
0B
#70000
1!
0"
16
07
0A
1B
#75000
0!
06
0B
#80000
1!
16
1B
#85000
0!
06
0B
#90000
1!
16
1B
#95000
0!
06
0B
#100000
1!
16
1B
#105000
0!
06
0B
#110000
1!
16
1B
#115000
0!
06
0B
#120000
1!
16
1B
#125000
0!
06
0B
#130000
1!
1"
16
17
1A
1B
#135000
0!
06
0B
#140000
1!
0"
16
07
0A
1B
#145000
0!
06
0B
#150000
1!
16
1B
#155000
0!
06
0B
#160000
1!
16
1B
#165000
0!
06
0B
#170000
1!
16
1B
#175000
0!
06
0B
#180000
1!
16
1B
#185000
0!
06
0B
#190000
1!
16
1B
#195000
0!
06
0B
#200000
1!
1"
16
17
1A
1B
#205000
0!
06
0B
#210000
1!
0"
16
07
0A
1B
#215000
0!
06
0B
#220000
1!
16
1B
#225000
0!
06
0B
#230000
1!
16
1B
#235000
0!
06
0B
#240000
1!
16
1B
#245000
0!
06
0B
#250000
1!
16
1B
#255000
0!
06
0B
#260000
1!
16
1B
#265000
0!
06
0B
#270000
1!
1"
16
17
1A
1B
#275000
0!
06
0B
#280000
1!
0"
16
07
0A
1B
#285000
0!
06
0B
#290000
1!
16
1B
#295000
0!
06
0B
#300000
1!
16
1B
#305000
0!
06
0B
#310000
1!
16
1B
#315000
0!
06
0B
#320000
1!
16
1B
#325000
0!
06
0B
#330000
1!
16
1B
#335000
0!
06
0B
#340000
1!
16
1B
#345000
0!
06
0B
#350000
1!
16
1B
#355000
0!
06
0B
#360000
1!
16
1B
#365000
0!
06
0B
#370000
1!
16
1B
#375000
0!
06
0B
#380000
1!
16
1B
#385000
0!
06
0B
#390000
1!
16
1B
#395000
0!
06
0B
#400000
1!
16
1B
#405000
0!
06
0B
#410000
1!
16
1B
#415000
0!
06
0B
#420000
1!
16
1B
#425000
0!
06
0B
#430000
1!
16
1B
#435000
0!
06
0B
#440000
1!
16
1B
#445000
0!
06
0B
#450000
1!
16
1B
#455000
0!
06
0B
#460000
1!
16
1B
#465000
0!
06
0B
#470000
1!
16
1B
#475000
0!
06
0B
#480000
1!
16
1B
#485000
0!
06
0B
#490000
1!
16
1B
#495000
0!
06
0B
#500000
1!
16
1B
#505000
0!
06
0B
#510000
1!
16
1B
#515000
0!
06
0B
#520000
1!
16
1B
#525000
0!
06
0B
#530000
1!
16
1B
#535000
0!
06
0B
#540000
1!
16
1B
#545000
0!
06
0B
#550000
1!
16
1B
#555000
0!
06
0B
#560000
1!
16
1B
#565000
0!
06
0B
#570000
1!
16
1B
#575000
0!
06
0B
#580000
1!
16
1B
#585000
0!
06
0B
#590000
1!
16
1B
#595000
0!
06
0B
#600000
1!
16
1B
#605000
0!
06
0B
#610000
1!
16
1B
#615000
0!
06
0B
#620000
1!
16
1B
#625000
0!
06
0B
#630000
1!
16
1B
#635000
0!
06
0B
#640000
1!
16
1B
#645000
0!
06
0B
#650000
1!
16
1B
#655000
0!
06
0B
#660000
1!
16
1B
#665000
0!
06
0B
#670000
1!
16
1B
#675000
0!
06
0B
#680000
1!
16
1B
#685000
0!
06
0B
#690000
1!
16
1B
#695000
0!
06
0B
#700000
1!
16
1B
#705000
0!
06
0B
#710000
1!
16
1B
#715000
0!
06
0B
#720000
1!
16
1B
#725000
0!
06
0B
#730000
1!
16
1B
#735000
0!
06
0B
#740000
1!
16
1B
#745000
0!
06
0B
#750000
1!
16
1B
#755000
0!
06
0B
#760000
1!
16
1B
#765000
0!
06
0B
#770000
1!
16
1B
#775000
0!
06
0B
#780000
1!
16
1B
#785000
0!
06
0B
#790000
1!
16
1B
#795000
0!
06
0B
#800000
1!
16
1B
#805000
0!
06
0B
#810000
1!
16
1B
#815000
0!
06
0B
#820000
1!
16
1B
#825000
0!
06
0B
#830000
1!
16
1B
#835000
0!
06
0B
#840000
1!
16
1B
#845000
0!
06
0B
#850000
1!
16
1B
#855000
0!
06
0B
#860000
1!
16
1B
#865000
0!
06
0B
#870000
1!
16
1B
#875000
0!
06
0B
#880000
1!
16
1B
#885000
0!
06
0B
#890000
1!
16
1B
#895000
0!
06
0B
#900000
1!
16
1B
#905000
0!
06
0B
#910000
1!
16
1B
#915000
0!
06
0B
#920000
1!
16
1B
#925000
0!
06
0B
#930000
1!
16
1B
#935000
0!
06
0B
#940000
1!
16
1B
#945000
0!
06
0B
#950000
1!
16
1B
#955000
0!
06
0B
#960000
1!
16
1B
#965000
0!
06
0B
#970000
1!
16
1B
#975000
0!
06
0B
#980000
1!
16
1B
#985000
0!
06
0B
#990000
1!
16
1B
#995000
0!
06
0B
